\relax 
\@writefile{toc}{\contentsline {section}{\numberline {1}Parser combinator library}{1}}
\@writefile{toc}{\contentsline {section}{\numberline {2}Use of biased combinators}{1}}
\@writefile{toc}{\contentsline {section}{\numberline {3}SubScript grammar}{1}}
\@writefile{toc}{\contentsline {section}{\numberline {4}Whitespace handling}{5}}
\@writefile{toc}{\contentsline {section}{\numberline {5}SubScript Parser implementation}{5}}
\@writefile{toc}{\contentsline {section}{\numberline {6}How to run and test the code}{6}}
