\relax 
\@writefile{toc}{\contentsline {section}{\numberline {1}Description}{1}}
\@writefile{toc}{\contentsline {subsection}{\numberline {1.1}facedin.pl}{1}}
\@writefile{toc}{\contentsline {subsubsection}{\numberline {1.1.1}buddies/3}{1}}
\@writefile{toc}{\contentsline {subsubsection}{\numberline {1.1.2}clique/2}{1}}
\@writefile{toc}{\contentsline {subsubsection}{\numberline {1.1.3}admirer/2}{1}}
\@writefile{toc}{\contentsline {subsubsection}{\numberline {1.1.4}idol/2}{1}}
\@writefile{toc}{\contentsline {subsubsection}{\numberline {1.1.5}ispath/4}{1}}
\@writefile{toc}{\contentsline {subsection}{\numberline {1.2}faceinTests.pl}{1}}
\@writefile{toc}{\contentsline {section}{\numberline {2}Running and testing}{1}}
