\relax 
\@writefile{toc}{\contentsline {section}{\numberline {1}Question 1: APMake parser}{1}}
\@writefile{toc}{\contentsline {subsection}{\numberline {1.1}Overview}{1}}
\@writefile{toc}{\contentsline {subsection}{\numberline {1.2}Assessment}{2}}
\@writefile{toc}{\contentsline {subsubsection}{\numberline {1.2.1}Correctness}{3}}
\@writefile{toc}{\contentsline {subsection}{\numberline {1.3}Design decisions/Simplifications}{3}}
\newlabel{subsec:dd1}{{1.3}{3}}
\@writefile{toc}{\contentsline {section}{\numberline {2}Question 2: APMake Interpreter}{4}}
\@writefile{toc}{\contentsline {subsection}{\numberline {2.1}Overview}{4}}
\@writefile{toc}{\contentsline {subsection}{\numberline {2.2}Assessment}{4}}
\newlabel{subsec:ass2}{{2.2}{4}}
\@writefile{toc}{\contentsline {subsection}{\numberline {2.3}Correctness}{6}}
\@writefile{toc}{\contentsline {subsection}{\numberline {2.4}Design decisions/Simplifications}{6}}
\newlabel{subsec:dd2}{{2.4}{6}}
\@writefile{toc}{\contentsline {section}{\numberline {3}Question 3: Robust Commands}{6}}
\@writefile{toc}{\contentsline {subsection}{\numberline {3.1}Overview}{6}}
\@writefile{toc}{\contentsline {subsection}{\numberline {3.2}Assessment}{7}}
\@writefile{toc}{\contentsline {subsection}{\numberline {3.3}Correctness}{8}}
\@writefile{toc}{\contentsline {subsection}{\numberline {3.4}Design decisions/Simplifications}{8}}
\newlabel{subsec:dd3}{{3.4}{8}}
\@writefile{toc}{\contentsline {section}{\numberline {4}Question 4: Concurrent Plans}{9}}
\@writefile{toc}{\contentsline {subsection}{\numberline {4.1}Overview}{9}}
\@writefile{toc}{\contentsline {subsection}{\numberline {4.2}Assessment}{9}}
\@writefile{toc}{\contentsline {subsection}{\numberline {4.3}Correctness}{9}}
\@writefile{toc}{\contentsline {subsection}{\numberline {4.4}Design decisions/Simplifications}{9}}
\@writefile{toc}{\contentsline {section}{\numberline {5}Appendices}{9}}
\@writefile{toc}{\contentsline {subsection}{\numberline {5.1}Appendix: APMake Grammar}{9}}
\newlabel{sec:appendix1}{{5.1}{9}}
\@writefile{toc}{\contentsline {subsection}{\numberline {5.2}Appendix: APMake Parser}{10}}
\newlabel{sec:appendix2}{{5.2}{10}}
\@writefile{toc}{\contentsline {subsection}{\numberline {5.3}Appendix: APMake Interpreter}{14}}
\newlabel{sec:appendix3}{{5.3}{14}}
\@writefile{toc}{\contentsline {subsection}{\numberline {5.4}Appendix: Robust Commands}{20}}
\@writefile{lol}{\contentsline {lstlisting}{language=Erlang}{20}}
\@writefile{toc}{\contentsline {subsection}{\numberline {5.5}Appendix: Concurrent Plans}{24}}
