\relax 
\@writefile{toc}{\contentsline {section}{\numberline {1}Discuss how you ensure that the user of your module cannot construct empty curves.}{1}}
\@writefile{toc}{\contentsline {section}{\numberline {2}Tell us how we can run your code and reproduce your test results.}{1}}
\@writefile{toc}{\contentsline {section}{\numberline {3}Assessment}{1}}
\@writefile{toc}{\contentsline {subsection}{\numberline {3.1}Curves module}{2}}
\@writefile{toc}{\contentsline {subsection}{\numberline {3.2}CurvesTest module}{2}}
