\relax 
\@writefile{toc}{\contentsline {section}{\numberline {1}Erlang Relay Chat (ERC)}{1}}
\@writefile{toc}{\contentsline {subsection}{\numberline {1.1}request\@uscore .reply\@uscore .ref}{1}}
\@writefile{toc}{\contentsline {subsection}{\numberline {1.2}connect/2}{1}}
\@writefile{toc}{\contentsline {section}{\numberline {2}Tests}{1}}
\@writefile{toc}{\contentsline {subsection}{\numberline {2.1}How to run tests}{1}}
\@writefile{toc}{\contentsline {section}{\numberline {3}Discussion}{1}}
